{
    "@id": "https://w3id.org/class/esc/n00",
    "@type": "Concept",
    "name": [
        {
            "@language": "de",
            "@value": "Allgemeine Programme und Qualifikationen"
        },
        {
            "@language": "en",
            "@value": "Generic programmes and qualifications"
        },
        {
            "@language": "pt",
            "@value": "Programas e qualificações genéricas"
        }
    ]
}